Biostat 203B Homework 2
…
Import icustatys.csv.gz as a tibble icustays_tble.

icustays_tble <- read_csv(file = file.path(input_dir, "icustays.csv.gz"), show_col_types = FALSE) %>% print(width = Inf)

# A tibble: 76,540 × 8
   subject_id  hadm_id  stay_id first_careunit          
        <dbl>    <dbl>    <dbl> <chr>                   
 1   17867402 24528534 31793211 Trauma SICU (TSICU)     
 2   14435996 28960964 31983544 Trauma SICU (TSICU)     
 3   17609946 27385897 33183475 Trauma SICU (TSICU)     
 4   18966770 23483021 34131444 Trauma SICU (TSICU)     
 5   12776735 20817525 34547665 Neuro Stepdown          
 6   10215159 24283593 34569476 Trauma SICU (TSICU)     
 7   14489052 26516390 35056286 Trauma SICU (TSICU)     
 8   15914763 28906020 36909804 Trauma SICU (TSICU)     
 9   16256226 20013290 39289362 Neuro Stepdown          
10   19194449 21641999 39387567 Coronary Care Unit (CCU)
   last_careunit            intime              outtime               los
   <chr>                    <dttm>              <dttm>              <dbl>
 1 Trauma SICU (TSICU)      2154-03-03 04:11:00 2154-03-04 18:16:56 1.59 
 2 Trauma SICU (TSICU)      2150-06-19 17:57:00 2150-06-22 18:33:54 3.03 
 3 Trauma SICU (TSICU)      2138-02-05 18:54:00 2138-02-15 12:42:05 9.74 
 4 Trauma SICU (TSICU)      2123-10-25 10:35:00 2123-10-25 18:59:47 0.351
 5 Neuro Stepdown           2200-07-12 00:33:00 2200-07-13 16:44:40 1.67 
 6 Trauma SICU (TSICU)      2124-09-20 15:05:29 2124-09-21 22:06:58 1.29 
 7 Trauma SICU (TSICU)      2118-10-26 10:33:56 2118-10-26 20:28:10 0.413
 8 Trauma SICU (TSICU)      2176-12-14 12:00:00 2176-12-17 11:47:01 2.99 
 9 Neuro Stepdown           2150-12-20 16:09:08 2150-12-21 14:58:40 0.951
10 Coronary Care Unit (CCU) 2123-11-12 02:53:35 2123-11-12 13:52:03 0.457
# … with 76,530 more rows
…
Import admissions.csv.gz as a tibble admissions_tble.

admissions_tble <- read_csv(file = file.path(input_admissions, "admissions.csv.gz"), show_col_types = FALSE) %>% 
  print(width = Inf)

# A tibble: 523,740 × 15
   subject_id  hadm_id admittime           dischtime           deathtime
        <dbl>    <dbl> <dttm>              <dttm>              <dttm>   
 1   14679932 21038362 2139-09-26 14:16:00 2139-09-28 11:30:00 NA       
 2   15585972 24941086 2123-10-07 23:56:00 2123-10-12 11:22:00 NA       
 3   11989120 21965160 2147-01-14 09:00:00 2147-01-17 14:25:00 NA       
 4   17817079 24709883 2165-12-27 17:33:00 2165-12-31 21:18:00 NA       
 5   15078341 23272159 2122-08-28 08:48:00 2122-08-30 12:32:00 NA       
 6   19124609 20517215 2169-03-14 12:44:00 2169-03-20 19:15:00 NA       
 7   17301855 29732723 2140-06-06 14:23:00 2140-06-08 14:25:00 NA       
 8   17991012 24298836 2181-07-10 20:28:00 2181-07-12 15:49:00 NA       
 9   16865435 23216961 2185-07-19 02:12:00 2185-07-21 11:50:00 NA       
10   13693648 21640725 2111-01-30 23:43:00 2111-02-02 13:03:00 NA       
   admission_type admission_location discharge_location insurance language
   <chr>          <chr>              <chr>              <chr>     <chr>   
 1 ELECTIVE       <NA>               HOME               Other     ENGLISH 
 2 ELECTIVE       <NA>               HOME               Other     ENGLISH 
 3 ELECTIVE       <NA>               HOME               Other     ENGLISH 
 4 ELECTIVE       <NA>               HOME               Other     ENGLISH 
 5 ELECTIVE       <NA>               HOME               Other     ENGLISH 
 6 ELECTIVE       <NA>               HOME               Other     ENGLISH 
 7 ELECTIVE       <NA>               HOME               Other     ENGLISH 
 8 ELECTIVE       <NA>               HOME               Other     ENGLISH 
 9 ELECTIVE       <NA>               HOME               Other     ENGLISH 
10 ELECTIVE       <NA>               HOME               Other     ENGLISH 
   marital_status ethnicity              edregtime edouttime
   <chr>          <chr>                  <dttm>    <dttm>   
 1 SINGLE         UNKNOWN                NA        NA       
 2 <NA>           WHITE                  NA        NA       
 3 <NA>           UNKNOWN                NA        NA       
 4 <NA>           OTHER                  NA        NA       
 5 <NA>           BLACK/AFRICAN AMERICAN NA        NA       
 6 <NA>           UNKNOWN                NA        NA       
 7 <NA>           WHITE                  NA        NA       
 8 <NA>           WHITE                  NA        NA       
 9 <NA>           WHITE                  NA        NA       
10 <NA>           WHITE                  NA        NA       
   hospital_expire_flag
                  <dbl>
 1                    0
 2                    0
 3                    0
 4                    0
 5                    0
 6                    0
 7                    0
 8                    0
 9                    0
10                    0
# … with 523,730 more rows
…
Import patients.csv.gz (https://mimic.mit.edu/docs/iv/modules/hosp/patients/) as a tibble patients_tble and only keep the patients who have a match in icustays_tble (according to subject_id).

patients_tble <- read_csv(file = file.path(input_admissions, "patients.csv.gz")) %>% 
  print(width = Inf) %>% 
  semi_join(icustays_tble, by = c("subject_id"))

# A tibble: 382,278 × 6
   subject_id gender anchor_age anchor_year anchor_year_group dod   
        <dbl> <chr>       <dbl>       <dbl> <chr>             <date>
 1   10000048 F              23        2126 2008 - 2010       NA    
 2   10002723 F               0        2128 2017 - 2019       NA    
 3   10003939 M               0        2184 2008 - 2010       NA    
 4   10004222 M               0        2161 2014 - 2016       NA    
 5   10005325 F               0        2154 2011 - 2013       NA    
 6   10007338 F               0        2153 2017 - 2019       NA    
 7   10008101 M               0        2142 2008 - 2010       NA    
 8   10009872 F               0        2168 2014 - 2016       NA    
 9   10011333 F               0        2132 2014 - 2016       NA    
10   10011879 M               0        2158 2014 - 2016       NA    
# … with 382,268 more rows
…
